module m-hospital

go 1.15

require (
	github.com/akrylysov/algnhsa v0.12.1
	github.com/alecthomas/template v0.0.0-20190718012654-fb15b899a751
	github.com/aws/aws-sdk-go v1.38.1
	github.com/dgrijalva/jwt-go v3.2.0+incompatible
	github.com/go-sql-driver/mysql v1.5.0
	github.com/gorilla/mux v1.8.0
	github.com/joho/godotenv v1.3.0
	github.com/sirupsen/logrus v1.8.1 // indirect
	github.com/stretchr/testify v1.7.0 // indirect
	github.com/swaggo/swag v1.7.0
)
